<?xml version="1.0" encoding="utf-8"?>
<!-- Generator: Adobe Illustrator 17.0.0, SVG Export Plug-In . SVG Version: 6.00 Build 0)  -->
<!DOCTYPE svg PUBLIC "-//W3C//DTD SVG 1.1//EN" "http://www.w3.org/Graphics/SVG/1.1/DTD/svg11.dtd">
<svg version="1.1" id="Layer_1" xmlns="http://www.w3.org/2000/svg" xmlns:xlink="http://www.w3.org/1999/xlink" x="0px" y="0px"
	 width="25px" height="40px" viewBox="0 0 25 40" enable-background="new 0 0 25 40" xml:space="preserve">
<rect x="-12" y="-4" display="none" fill="#375EAB" width="53" height="52.5"/>
<text transform="matrix(1 0 0 1 6.9378 37.7381)" fill="#FFFFFF" font-family="'PatuaOne-Regular'" font-size="31.5933">C</text>
<text transform="matrix(-2.162 -0.0317 0.0147 -0.9999 19.8624 4.7714)" fill="#FFFFFF" font-family="'Neucha'" font-size="11.9442">l</text>
<text transform="matrix(-1.9625 0.9077 -0.4197 -0.9077 11.7324 5.6759)" fill="#FFFFFF" font-family="'Neucha'" font-size="11.944">l</text>
<text transform="matrix(-1.3873 1.6585 -0.767 -0.6416 4.3947 10.0593)" fill="#FFFFFF" font-family="'Neucha'" font-size="11.9443">l</text>
</svg>
